// Jest Snapshot v1, https://goo.gl/fbAQLP

exports[`Button snapshot testing should Test render 1`] = `
<DocumentFragment>
  <div>
    <p>
      Lorem ipsum dolor sit.
    </p>
  </div>
</DocumentFragment>
`;

exports[`Button snapshot testing should Test with button render 1`] = `
<DocumentFragment>
  <div>
    <p>
      Lorem ipsum dolor sit.
    </p>
    <button
      class="btn"
    >
      Hello from button
    </button>
  </div>
</DocumentFragment>
`;
