[
  {
    "productName": "HP Spectre pro ",
    "price": "44999",
    "src": "https://content.rozetka.com.ua/goods/images/big/398258904.jpg",
    "id": 1,
    "color": "Dark Ash Silver",
    "isFavourite": false
  },
  {
    "productName": "HP Spectre pro max ",
    "price": "44999",
    "src": "https://content.rozetka.com.ua/goods/images/big/398258904.jpg",
    "id": 2,
    "color": "Dark Ash Silver",
    "isFavourite": false
  },
  {
    "productName": "HP Spectre pro min ",
    "price": "73999",
    "src": "https://content.rozetka.com.ua/goods/images/big/398258904.jpg",
    "id": 3,
    "color": "Platinum Silver",
    "isFavourite": false
  },
  {
    "productName": "HP Spectre air ",
    "price": "63999",
    "src": "https://content.rozetka.com.ua/goods/images/big/398258904.jpg",
    "id": 4,
    "color": "Black",
    "isFavourite": false
  },
  {
    "productName": "Apple MacBook Pro 14",
    "price": "109999",
    "src": "https://content1.rozetka.com.ua/goods/images/big/328967923.jpg",
    "id": 5,
    "color": "Space Grey",
    "isFavourite": false
  },
  {
    "productName": "Apple MacBook Pro 14 pro ",
    "price": "59999",
    "src": "https://content1.rozetka.com.ua/goods/images/big/328967923.jpg",
    "id": 6,
    "color": "Eclipse Gray",
    "isFavourite": false
  },
  {
    "productName": "Apple MacBook Pro 15  max ",
    "price": "55999",
    "src": "https://content1.rozetka.com.ua/goods/images/big/328967923.jpg",
    "id": 7,
    "color": "Sandstone",
    "isFavourite": false
  },
  {
    "productName": "Apple MacBook Pro 15 air",
    "price": "45999",
    "src": "https://content1.rozetka.com.ua/goods/images/big/328967923.jpg",
    "id": 8,
    "color": "Mist Green",
    "isFavourite": false
  },
  {
    "productName": "Razer Blade ",
    "price": "69999",
    "src": "https://content2.rozetka.com.ua/goods/images/big/414338317.jpg",
    "id": 9,
    "color": "Mercury White",
    "isFavourite": false
  },
  {
    "productName": "Razer Blade Pro ",
    "price": "69500",
    "src": "https://content2.rozetka.com.ua/goods/images/big/414338317.jpg",
    "id": 10,
    "color": "Mercury White",
    "isFavourite": false
  },
  {
    "productName": "Razer Blade Pro max ",
    "price": "69999",
    "src": "https://content2.rozetka.com.ua/goods/images/big/414338317.jpg",
    "id": 11,
    "color": "Mercury White",
    "isFavourite": false
  },
  {
    "productName": "Razer Blade air ",
    "price": "95999",
    "src": "https://content2.rozetka.com.ua/goods/images/big/414338317.jpg",
    "id": 12,
    "color": "Black",
    "isFavourite": false
  }

]

